catulz_reg|hextrc_hpu|cgrp_econm|ctpo_grp_econm|igrp_econm|csit_grp_econm|cstpo_grp_econm|dincl_reg|datulz_grp|dvaldd_grp|dult_alt_reg|hult_alt_reg|cusuar_senha|cidtfd_midia|dt_ingtao|nome_arq_ingtao|dt_ingtao_ptcao
I|2018-02-09-15.32.58.653749|0|0||0|0|2017-06-08|2017-06-08|2017-06-08|2017-06-08|15.18.12|||2018-02-19 13:22:55.0|BGDT_GRUP_GRUPB001_DDIA_20180209_153748.ok|2018-02-19
I|2018-02-09-15.32.58.653749|1|1|CLIENTE ZERO|2|0|0001-01-01|2017-08-16|2018-08-16|2017-08-16|14.47.07|0000001|IMS12|2018-02-19 13:22:55.0|BGDT_GRUP_GRUPB001_DDIA_20180209_153748.ok|2018-02-19
I|2018-02-09-15.32.58.653749|2|200|ATLAS COPCO2|0|0|0001-01-01|0001-01-01|0001-01-01|0001-01-01|01.01.00|9999999|********|2018-02-19 13:22:55.0|BGDT_GRUP_GRUPB001_DDIA_20180209_153748.ok|2018-02-19
I|2018-02-09-15.32.58.653749|4|12|DRESDNER BANK|5|0|2003-12-12|2007-01-12|2007-01-12|2007-01-12|12.23.44|0000001|IMS12|2018-02-19 13:22:55.0|BGDT_GRUP_GRUPB001_DDIA_20180209_153748.ok|2018-02-19
I|2018-02-09-15.32.58.653749|7|5|CARELLI VEICULOS|2|0|2012-10-02|2014-04-16|2015-04-16|2012-04-16|10.54.21|0000001|IMS12|2018-02-19 13:22:55.0|BGDT_GRUP_GRUPB001_DDIA_20180209_153748.ok|2018-02-19
I|2018-02-09-15.32.58.653749|8|1|ATLAS COPCO|2|1|2004-01-12|2015-03-18|2016-03-18|2015-03-18|11.05.44|0000001|IMS12|2018-02-19 13:22:55.0|BGDT_GRUP_GRUPB001_DDIA_20180209_153748.ok|2018-02-19
I|2018-02-09-15.32.58.653749|9|4|CEFRI|2|6|2003-12-12|2015-03-18|2016-03-18|2015-03-18|11.10.22|8888888|********|2018-02-19 13:22:55.0|BGDT_GRUP_GRUPB001_DDIA_20180209_153748.ok|2018-02-19
I|2018-02-09-15.32.58.653749|10|4|ALCOA|2|6|0001-01-01|2017-06-14|2018-06-14|2017-11-01|15.20.49|0000001|IMS12|2018-02-19 13:22:55.0|BGDT_GRUP_GRUPB001_DDIA_20180209_153748.ok|2018-02-19
I|2018-02-09-15.32.58.653749|11|4|COLONIZADORA BANDEIR|2|7|2003-12-12|2007-06-01|2008-06-01|2007-06-01|15.41.56|0000001|IMS12|2018-02-19 13:22:55.0|BGDT_GRUP_GRUPB001_DDIA_20180209_153748.ok|2018-02-19
I|2018-02-09-15.32.58.653749|12|5|GRUPO PAO DE ACUCAR|2|0|2010-06-09|2017-01-13|2018-01-13|2017-01-13|08.15.12|0000001|IMS12|2018-02-19 13:22:55.0|BGDT_GRUP_GRUPB001_DDIA_20180209_153748.ok|2018-02-19